^D:\PROFILES\RGOUDARD\DESKTOP\ECOLE\CPUSPLUS2\PROJETCPPSERVER\SERVERTEST\STDAFX.CPP
C:\WINDOWS\GLOBALIZATION\SORTING\SORTDEFAULT.NLS
D:\PROFILES\RGOUDARD\PROGRAMMES\VISUAL STUDIO\VC\TOOLS\MSVC\14.12.25827\BIN\HOSTX86\X64\1036\CLUI.DLL
C:\WINDOWS\SYSTEM32\RSAENH.DLL
C:\WINDOWS\SYSTEM32\TZRES.DLL
D:\PROFILES\RGOUDARD\DESKTOP\ECOLE\CPUSPLUS2\PROJETCPPSERVER\SERVERTEST\STDAFX.H
D:\PROFILES\RGOUDARD\DESKTOP\ECOLE\CPUSPLUS2\PROJETCPPSERVER\SERVERTEST\TARGETVER.H
C:\PROGRAM FILES (X86)\WINDOWS KITS\10\INCLUDE\10.0.16299.0\SHARED\SDKDDKVER.H
D:\PROFILES\RGOUDARD\PROGRAMMES\VISUAL STUDIO\VC\TOOLS\MSVC\14.12.25827\INCLUDE\CSTDIO
D:\PROFILES\RGOUDARD\PROGRAMMES\VISUAL STUDIO\VC\TOOLS\MSVC\14.12.25827\INCLUDE\YVALS.H
D:\PROFILES\RGOUDARD\PROGRAMMES\VISUAL STUDIO\VC\TOOLS\MSVC\14.12.25827\INCLUDE\XKEYCHECK.H
D:\PROFILES\RGOUDARD\PROGRAMMES\VISUAL STUDIO\VC\TOOLS\MSVC\14.12.25827\INCLUDE\CRTDEFS.H
D:\PROFILES\RGOUDARD\PROGRAMMES\VISUAL STUDIO\VC\TOOLS\MSVC\14.12.25827\INCLUDE\VCRUNTIME.H
D:\PROFILES\RGOUDARD\PROGRAMMES\VISUAL STUDIO\VC\TOOLS\MSVC\14.12.25827\INCLUDE\SAL.H
D:\PROFILES\RGOUDARD\PROGRAMMES\VISUAL STUDIO\VC\TOOLS\MSVC\14.12.25827\INCLUDE\CONCURRENCYSAL.H
D:\PROFILES\RGOUDARD\PROGRAMMES\VISUAL STUDIO\VC\TOOLS\MSVC\14.12.25827\INCLUDE\VADEFS.H
C:\PROGRAM FILES (X86)\WINDOWS KITS\10\INCLUDE\10.0.16299.0\UCRT\CORECRT.H
D:\PROFILES\RGOUDARD\PROGRAMMES\VISUAL STUDIO\VC\TOOLS\MSVC\14.12.25827\INCLUDE\USE_ANSI.H
C:\PROGRAM FILES (X86)\WINDOWS KITS\10\INCLUDE\10.0.16299.0\UCRT\STDIO.H
C:\PROGRAM FILES (X86)\WINDOWS KITS\10\INCLUDE\10.0.16299.0\UCRT\CORECRT_WSTDIO.H
C:\PROGRAM FILES (X86)\WINDOWS KITS\10\INCLUDE\10.0.16299.0\UCRT\CORECRT_STDIO_CONFIG.H
C:\PROGRAM FILES (X86)\WINDOWS KITS\10\INCLUDE\10.0.16299.0\UCRT\TCHAR.H
C:\PROGRAM FILES (X86)\WINDOWS KITS\10\INCLUDE\10.0.16299.0\UCRT\WCHAR.H
C:\PROGRAM FILES (X86)\WINDOWS KITS\10\INCLUDE\10.0.16299.0\UCRT\CORECRT_MEMCPY_S.H
C:\PROGRAM FILES (X86)\WINDOWS KITS\10\INCLUDE\10.0.16299.0\UCRT\ERRNO.H
D:\PROFILES\RGOUDARD\PROGRAMMES\VISUAL STUDIO\VC\TOOLS\MSVC\14.12.25827\INCLUDE\VCRUNTIME_STRING.H
C:\PROGRAM FILES (X86)\WINDOWS KITS\10\INCLUDE\10.0.16299.0\UCRT\CORECRT_WCONIO.H
C:\PROGRAM FILES (X86)\WINDOWS KITS\10\INCLUDE\10.0.16299.0\UCRT\CORECRT_WCTYPE.H
C:\PROGRAM FILES (X86)\WINDOWS KITS\10\INCLUDE\10.0.16299.0\UCRT\CORECRT_WDIRECT.H
C:\PROGRAM FILES (X86)\WINDOWS KITS\10\INCLUDE\10.0.16299.0\UCRT\CORECRT_WIO.H
C:\PROGRAM FILES (X86)\WINDOWS KITS\10\INCLUDE\10.0.16299.0\UCRT\CORECRT_SHARE.H
C:\PROGRAM FILES (X86)\WINDOWS KITS\10\INCLUDE\10.0.16299.0\UCRT\CORECRT_WPROCESS.H
C:\PROGRAM FILES (X86)\WINDOWS KITS\10\INCLUDE\10.0.16299.0\UCRT\CORECRT_WSTDLIB.H
C:\PROGRAM FILES (X86)\WINDOWS KITS\10\INCLUDE\10.0.16299.0\UCRT\CORECRT_WSTRING.H
C:\PROGRAM FILES (X86)\WINDOWS KITS\10\INCLUDE\10.0.16299.0\UCRT\CORECRT_WTIME.H
C:\PROGRAM FILES (X86)\WINDOWS KITS\10\INCLUDE\10.0.16299.0\UCRT\SYS\STAT.H
C:\PROGRAM FILES (X86)\WINDOWS KITS\10\INCLUDE\10.0.16299.0\UCRT\SYS\TYPES.H
^D:\PROFILES\RGOUDARD\DESKTOP\ECOLE\CPUSPLUS2\PROJETCPPSERVER\SERVERTEST\SERVERCPP.CPP
C:\WINDOWS\GLOBALIZATION\SORTING\SORTDEFAULT.NLS
D:\PROFILES\RGOUDARD\PROGRAMMES\VISUAL STUDIO\VC\TOOLS\MSVC\14.12.25827\BIN\HOSTX86\X64\1036\CLUI.DLL
D:\PROFILES\RGOUDARD\DESKTOP\ECOLE\CPUSPLUS2\PROJETCPPSERVER\SERVERTEST\X64\DEBUG\SERVERCPP.PCH
C:\WINDOWS\SYSTEM32\RSAENH.DLL
C:\WINDOWS\SYSTEM32\TZRES.DLL
D:\PROFILES\RGOUDARD\PROGRAMMES\VISUAL STUDIO\VC\TOOLS\MSVC\14.12.25827\INCLUDE\IOSTREAM
D:\PROFILES\RGOUDARD\PROGRAMMES\VISUAL STUDIO\VC\TOOLS\MSVC\14.12.25827\INCLUDE\ISTREAM
D:\PROFILES\RGOUDARD\PROGRAMMES\VISUAL STUDIO\VC\TOOLS\MSVC\14.12.25827\INCLUDE\OSTREAM
D:\PROFILES\RGOUDARD\PROGRAMMES\VISUAL STUDIO\VC\TOOLS\MSVC\14.12.25827\INCLUDE\IOS
D:\PROFILES\RGOUDARD\PROGRAMMES\VISUAL STUDIO\VC\TOOLS\MSVC\14.12.25827\INCLUDE\XLOCNUM
D:\PROFILES\RGOUDARD\PROGRAMMES\VISUAL STUDIO\VC\TOOLS\MSVC\14.12.25827\INCLUDE\CLIMITS
D:\PROFILES\RGOUDARD\PROGRAMMES\VISUAL STUDIO\VC\TOOLS\MSVC\14.12.25827\INCLUDE\LIMITS.H
D:\PROFILES\RGOUDARD\PROGRAMMES\VISUAL STUDIO\VC\TOOLS\MSVC\14.12.25827\INCLUDE\VCRUNTIME.H
D:\PROFILES\RGOUDARD\PROGRAMMES\VISUAL STUDIO\VC\TOOLS\MSVC\14.12.25827\INCLUDE\CMATH
D:\PROFILES\RGOUDARD\PROGRAMMES\VISUAL STUDIO\VC\TOOLS\MSVC\14.12.25827\INCLUDE\CSTDLIB
C:\PROGRAM FILES (X86)\WINDOWS KITS\10\INCLUDE\10.0.16299.0\UCRT\STDLIB.H
C:\PROGRAM FILES (X86)\WINDOWS KITS\10\INCLUDE\10.0.16299.0\UCRT\CORECRT_MALLOC.H
C:\PROGRAM FILES (X86)\WINDOWS KITS\10\INCLUDE\10.0.16299.0\UCRT\CORECRT_SEARCH.H
C:\PROGRAM FILES (X86)\WINDOWS KITS\10\INCLUDE\10.0.16299.0\UCRT\STDDEF.H
C:\PROGRAM FILES (X86)\WINDOWS KITS\10\INCLUDE\10.0.16299.0\UCRT\MATH.H
C:\PROGRAM FILES (X86)\WINDOWS KITS\10\INCLUDE\10.0.16299.0\UCRT\CORECRT_MATH.H
D:\PROFILES\RGOUDARD\PROGRAMMES\VISUAL STUDIO\VC\TOOLS\MSVC\14.12.25827\INCLUDE\XTGMATH.H
D:\PROFILES\RGOUDARD\PROGRAMMES\VISUAL STUDIO\VC\TOOLS\MSVC\14.12.25827\INCLUDE\XTR1COMMON
D:\PROFILES\RGOUDARD\PROGRAMMES\VISUAL STUDIO\VC\TOOLS\MSVC\14.12.25827\INCLUDE\STREAMBUF
D:\PROFILES\RGOUDARD\PROGRAMMES\VISUAL STUDIO\VC\TOOLS\MSVC\14.12.25827\INCLUDE\XIOSBASE
D:\PROFILES\RGOUDARD\PROGRAMMES\VISUAL STUDIO\VC\TOOLS\MSVC\14.12.25827\INCLUDE\XLOCALE
D:\PROFILES\RGOUDARD\PROGRAMMES\VISUAL STUDIO\VC\TOOLS\MSVC\14.12.25827\INCLUDE\CSTRING
C:\PROGRAM FILES (X86)\WINDOWS KITS\10\INCLUDE\10.0.16299.0\UCRT\STRING.H
C:\PROGRAM FILES (X86)\WINDOWS KITS\10\INCLUDE\10.0.16299.0\UCRT\CORECRT_MEMORY.H
D:\PROFILES\RGOUDARD\PROGRAMMES\VISUAL STUDIO\VC\TOOLS\MSVC\14.12.25827\INCLUDE\STDEXCEPT
D:\PROFILES\RGOUDARD\PROGRAMMES\VISUAL STUDIO\VC\TOOLS\MSVC\14.12.25827\INCLUDE\EXCEPTION
D:\PROFILES\RGOUDARD\PROGRAMMES\VISUAL STUDIO\VC\TOOLS\MSVC\14.12.25827\INCLUDE\TYPE_TRAITS
D:\PROFILES\RGOUDARD\PROGRAMMES\VISUAL STUDIO\VC\TOOLS\MSVC\14.12.25827\INCLUDE\XSTDDEF
D:\PROFILES\RGOUDARD\PROGRAMMES\VISUAL STUDIO\VC\TOOLS\MSVC\14.12.25827\INCLUDE\CSTDDEF
D:\PROFILES\RGOUDARD\PROGRAMMES\VISUAL STUDIO\VC\TOOLS\MSVC\14.12.25827\INCLUDE\INITIALIZER_LIST
C:\PROGRAM FILES (X86)\WINDOWS KITS\10\INCLUDE\10.0.16299.0\UCRT\MALLOC.H
D:\PROFILES\RGOUDARD\PROGRAMMES\VISUAL STUDIO\VC\TOOLS\MSVC\14.12.25827\INCLUDE\VCRUNTIME_EXCEPTION.H
D:\PROFILES\RGOUDARD\PROGRAMMES\VISUAL STUDIO\VC\TOOLS\MSVC\14.12.25827\INCLUDE\EH.H
C:\PROGRAM FILES (X86)\WINDOWS KITS\10\INCLUDE\10.0.16299.0\UCRT\CORECRT_TERMINATE.H
D:\PROFILES\RGOUDARD\PROGRAMMES\VISUAL STUDIO\VC\TOOLS\MSVC\14.12.25827\INCLUDE\XSTRING
D:\PROFILES\RGOUDARD\PROGRAMMES\VISUAL STUDIO\VC\TOOLS\MSVC\14.12.25827\INCLUDE\XMEMORY0
D:\PROFILES\RGOUDARD\PROGRAMMES\VISUAL STUDIO\VC\TOOLS\MSVC\14.12.25827\INCLUDE\CSTDINT
D:\PROFILES\RGOUDARD\PROGRAMMES\VISUAL STUDIO\VC\TOOLS\MSVC\14.12.25827\INCLUDE\STDINT.H
D:\PROFILES\RGOUDARD\PROGRAMMES\VISUAL STUDIO\VC\TOOLS\MSVC\14.12.25827\INCLUDE\LIMITS
D:\PROFILES\RGOUDARD\PROGRAMMES\VISUAL STUDIO\VC\TOOLS\MSVC\14.12.25827\INCLUDE\YMATH.H
D:\PROFILES\RGOUDARD\PROGRAMMES\VISUAL STUDIO\VC\TOOLS\MSVC\14.12.25827\INCLUDE\CFLOAT
C:\PROGRAM FILES (X86)\WINDOWS KITS\10\INCLUDE\10.0.16299.0\UCRT\FLOAT.H
D:\PROFILES\RGOUDARD\PROGRAMMES\VISUAL STUDIO\VC\TOOLS\MSVC\14.12.25827\INCLUDE\CWCHAR
D:\PROFILES\RGOUDARD\PROGRAMMES\VISUAL STUDIO\VC\TOOLS\MSVC\14.12.25827\INCLUDE\NEW
D:\PROFILES\RGOUDARD\PROGRAMMES\VISUAL STUDIO\VC\TOOLS\MSVC\14.12.25827\INCLUDE\VCRUNTIME_NEW.H
D:\PROFILES\RGOUDARD\PROGRAMMES\VISUAL STUDIO\VC\TOOLS\MSVC\14.12.25827\INCLUDE\XUTILITY
D:\PROFILES\RGOUDARD\PROGRAMMES\VISUAL STUDIO\VC\TOOLS\MSVC\14.12.25827\INCLUDE\UTILITY
D:\PROFILES\RGOUDARD\PROGRAMMES\VISUAL STUDIO\VC\TOOLS\MSVC\14.12.25827\INCLUDE\IOSFWD
C:\PROGRAM FILES (X86)\WINDOWS KITS\10\INCLUDE\10.0.16299.0\UCRT\CRTDBG.H
D:\PROFILES\RGOUDARD\PROGRAMMES\VISUAL STUDIO\VC\TOOLS\MSVC\14.12.25827\INCLUDE\VCRUNTIME_NEW_DEBUG.H
D:\PROFILES\RGOUDARD\PROGRAMMES\VISUAL STUDIO\VC\TOOLS\MSVC\14.12.25827\INCLUDE\XATOMIC0.H
D:\PROFILES\RGOUDARD\PROGRAMMES\VISUAL STUDIO\VC\TOOLS\MSVC\14.12.25827\INCLUDE\INTRIN0.H
D:\PROFILES\RGOUDARD\PROGRAMMES\VISUAL STUDIO\VC\TOOLS\MSVC\14.12.25827\INCLUDE\TYPEINFO
D:\PROFILES\RGOUDARD\PROGRAMMES\VISUAL STUDIO\VC\TOOLS\MSVC\14.12.25827\INCLUDE\VCRUNTIME_TYPEINFO.H
D:\PROFILES\RGOUDARD\PROGRAMMES\VISUAL STUDIO\VC\TOOLS\MSVC\14.12.25827\INCLUDE\XLOCINFO
D:\PROFILES\RGOUDARD\PROGRAMMES\VISUAL STUDIO\VC\TOOLS\MSVC\14.12.25827\INCLUDE\XLOCINFO.H
C:\PROGRAM FILES (X86)\WINDOWS KITS\10\INCLUDE\10.0.16299.0\UCRT\CTYPE.H
C:\PROGRAM FILES (X86)\WINDOWS KITS\10\INCLUDE\10.0.16299.0\UCRT\LOCALE.H
D:\PROFILES\RGOUDARD\PROGRAMMES\VISUAL STUDIO\VC\TOOLS\MSVC\14.12.25827\INCLUDE\XFACET
D:\PROFILES\RGOUDARD\PROGRAMMES\VISUAL STUDIO\VC\TOOLS\MSVC\14.12.25827\INCLUDE\SYSTEM_ERROR
D:\PROFILES\RGOUDARD\PROGRAMMES\VISUAL STUDIO\VC\TOOLS\MSVC\14.12.25827\INCLUDE\CERRNO
D:\PROFILES\RGOUDARD\PROGRAMMES\VISUAL STUDIO\VC\TOOLS\MSVC\14.12.25827\INCLUDE\XCALL_ONCE.H
C:\PROGRAM FILES (X86)\WINDOWS KITS\10\INCLUDE\10.0.16299.0\UCRT\SHARE.H
C:\PROGRAM FILES (X86)\WINDOWS KITS\10\INCLUDE\10.0.16299.0\UM\WINSOCK2.H
C:\PROGRAM FILES (X86)\WINDOWS KITS\10\INCLUDE\10.0.16299.0\SHARED\WINAPIFAMILY.H
C:\PROGRAM FILES (X86)\WINDOWS KITS\10\INCLUDE\10.0.16299.0\SHARED\WINPACKAGEFAMILY.H
C:\PROGRAM FILES (X86)\WINDOWS KITS\10\INCLUDE\10.0.16299.0\UM\WINDOWS.H
D:\PROFILES\RGOUDARD\PROGRAMMES\VISUAL STUDIO\VC\TOOLS\MSVC\14.12.25827\INCLUDE\EXCPT.H
D:\PROFILES\RGOUDARD\PROGRAMMES\VISUAL STUDIO\VC\TOOLS\MSVC\14.12.25827\INCLUDE\STDARG.H
C:\PROGRAM FILES (X86)\WINDOWS KITS\10\INCLUDE\10.0.16299.0\SHARED\WINDEF.H
C:\PROGRAM FILES (X86)\WINDOWS KITS\10\INCLUDE\10.0.16299.0\SHARED\MINWINDEF.H
C:\PROGRAM FILES (X86)\WINDOWS KITS\10\INCLUDE\10.0.16299.0\SHARED\SPECSTRINGS.H
C:\PROGRAM FILES (X86)\WINDOWS KITS\10\INCLUDE\10.0.16299.0\SHARED\SPECSTRINGS_STRICT.H
C:\PROGRAM FILES (X86)\WINDOWS KITS\10\INCLUDE\10.0.16299.0\SHARED\SPECSTRINGS_UNDEF.H
C:\PROGRAM FILES (X86)\WINDOWS KITS\10\INCLUDE\10.0.16299.0\SHARED\DRIVERSPECS.H
C:\PROGRAM FILES (X86)\WINDOWS KITS\10\INCLUDE\10.0.16299.0\SHARED\SDV_DRIVERSPECS.H
C:\PROGRAM FILES (X86)\WINDOWS KITS\10\INCLUDE\10.0.16299.0\UM\WINNT.H
C:\PROGRAM FILES (X86)\WINDOWS KITS\10\INCLUDE\10.0.16299.0\SHARED\KERNELSPECS.H
C:\PROGRAM FILES (X86)\WINDOWS KITS\10\INCLUDE\10.0.16299.0\SHARED\BASETSD.H
C:\PROGRAM FILES (X86)\WINDOWS KITS\10\INCLUDE\10.0.16299.0\SHARED\GUIDDEF.H
C:\PROGRAM FILES (X86)\WINDOWS KITS\10\INCLUDE\10.0.16299.0\SHARED\PSHPACK4.H
C:\PROGRAM FILES (X86)\WINDOWS KITS\10\INCLUDE\10.0.16299.0\SHARED\POPPACK.H
C:\PROGRAM FILES (X86)\WINDOWS KITS\10\INCLUDE\10.0.16299.0\SHARED\PSHPACK2.H
C:\PROGRAM FILES (X86)\WINDOWS KITS\10\INCLUDE\10.0.16299.0\SHARED\PSHPACK8.H
C:\PROGRAM FILES (X86)\WINDOWS KITS\10\INCLUDE\10.0.16299.0\SHARED\PSHPACK1.H
C:\PROGRAM FILES (X86)\WINDOWS KITS\10\INCLUDE\10.0.16299.0\SHARED\APISET.H
C:\PROGRAM FILES (X86)\WINDOWS KITS\10\INCLUDE\10.0.16299.0\SHARED\KTMTYPES.H
C:\PROGRAM FILES (X86)\WINDOWS KITS\10\INCLUDE\10.0.16299.0\UM\WINBASE.H
C:\PROGRAM FILES (X86)\WINDOWS KITS\10\INCLUDE\10.0.16299.0\SHARED\APISETCCONV.H
C:\PROGRAM FILES (X86)\WINDOWS KITS\10\INCLUDE\10.0.16299.0\UM\MINWINBASE.H
C:\PROGRAM FILES (X86)\WINDOWS KITS\10\INCLUDE\10.0.16299.0\UM\PROCESSENV.H
C:\PROGRAM FILES (X86)\WINDOWS KITS\10\INCLUDE\10.0.16299.0\UM\FILEAPI.H
C:\PROGRAM FILES (X86)\WINDOWS KITS\10\INCLUDE\10.0.16299.0\UM\DEBUGAPI.H
C:\PROGRAM FILES (X86)\WINDOWS KITS\10\INCLUDE\10.0.16299.0\UM\UTILAPISET.H
C:\PROGRAM FILES (X86)\WINDOWS KITS\10\INCLUDE\10.0.16299.0\UM\HANDLEAPI.H
C:\PROGRAM FILES (X86)\WINDOWS KITS\10\INCLUDE\10.0.16299.0\UM\ERRHANDLINGAPI.H
C:\PROGRAM FILES (X86)\WINDOWS KITS\10\INCLUDE\10.0.16299.0\UM\FIBERSAPI.H
C:\PROGRAM FILES (X86)\WINDOWS KITS\10\INCLUDE\10.0.16299.0\UM\NAMEDPIPEAPI.H
C:\PROGRAM FILES (X86)\WINDOWS KITS\10\INCLUDE\10.0.16299.0\UM\PROFILEAPI.H
C:\PROGRAM FILES (X86)\WINDOWS KITS\10\INCLUDE\10.0.16299.0\UM\HEAPAPI.H
C:\PROGRAM FILES (X86)\WINDOWS KITS\10\INCLUDE\10.0.16299.0\UM\IOAPISET.H
C:\PROGRAM FILES (X86)\WINDOWS KITS\10\INCLUDE\10.0.16299.0\UM\SYNCHAPI.H
C:\PROGRAM FILES (X86)\WINDOWS KITS\10\INCLUDE\10.0.16299.0\UM\INTERLOCKEDAPI.H
C:\PROGRAM FILES (X86)\WINDOWS KITS\10\INCLUDE\10.0.16299.0\UM\PROCESSTHREADSAPI.H
C:\PROGRAM FILES (X86)\WINDOWS KITS\10\INCLUDE\10.0.16299.0\UM\SYSINFOAPI.H
C:\PROGRAM FILES (X86)\WINDOWS KITS\10\INCLUDE\10.0.16299.0\UM\MEMORYAPI.H
C:\PROGRAM FILES (X86)\WINDOWS KITS\10\INCLUDE\10.0.16299.0\UM\ENCLAVEAPI.H
C:\PROGRAM FILES (X86)\WINDOWS KITS\10\INCLUDE\10.0.16299.0\UM\THREADPOOLLEGACYAPISET.H
C:\PROGRAM FILES (X86)\WINDOWS KITS\10\INCLUDE\10.0.16299.0\UM\THREADPOOLAPISET.H
C:\PROGRAM FILES (X86)\WINDOWS KITS\10\INCLUDE\10.0.16299.0\UM\JOBAPI.H
C:\PROGRAM FILES (X86)\WINDOWS KITS\10\INCLUDE\10.0.16299.0\UM\JOBAPI2.H
C:\PROGRAM FILES (X86)\WINDOWS KITS\10\INCLUDE\10.0.16299.0\UM\WOW64APISET.H
C:\PROGRAM FILES (X86)\WINDOWS KITS\10\INCLUDE\10.0.16299.0\UM\LIBLOADERAPI.H
C:\PROGRAM FILES (X86)\WINDOWS KITS\10\INCLUDE\10.0.16299.0\UM\SECURITYBASEAPI.H
C:\PROGRAM FILES (X86)\WINDOWS KITS\10\INCLUDE\10.0.16299.0\UM\NAMESPACEAPI.H
C:\PROGRAM FILES (X86)\WINDOWS KITS\10\INCLUDE\10.0.16299.0\UM\SYSTEMTOPOLOGYAPI.H
C:\PROGRAM FILES (X86)\WINDOWS KITS\10\INCLUDE\10.0.16299.0\UM\PROCESSTOPOLOGYAPI.H
C:\PROGRAM FILES (X86)\WINDOWS KITS\10\INCLUDE\10.0.16299.0\UM\SECURITYAPPCONTAINER.H
C:\PROGRAM FILES (X86)\WINDOWS KITS\10\INCLUDE\10.0.16299.0\UM\REALTIMEAPISET.H
C:\PROGRAM FILES (X86)\WINDOWS KITS\10\INCLUDE\10.0.16299.0\SHARED\WINERROR.H
C:\PROGRAM FILES (X86)\WINDOWS KITS\10\INCLUDE\10.0.16299.0\UM\TIMEZONEAPI.H
C:\PROGRAM FILES (X86)\WINDOWS KITS\10\INCLUDE\10.0.16299.0\UM\WINGDI.H
C:\PROGRAM FILES (X86)\WINDOWS KITS\10\INCLUDE\10.0.16299.0\UM\WINUSER.H
C:\PROGRAM FILES (X86)\WINDOWS KITS\10\INCLUDE\10.0.16299.0\SHARED\TVOUT.H
C:\PROGRAM FILES (X86)\WINDOWS KITS\10\INCLUDE\10.0.16299.0\UM\WINNLS.H
C:\PROGRAM FILES (X86)\WINDOWS KITS\10\INCLUDE\10.0.16299.0\UM\DATETIMEAPI.H
C:\PROGRAM FILES (X86)\WINDOWS KITS\10\INCLUDE\10.0.16299.0\UM\STRINGAPISET.H
C:\PROGRAM FILES (X86)\WINDOWS KITS\10\INCLUDE\10.0.16299.0\UM\WINCON.H
C:\PROGRAM FILES (X86)\WINDOWS KITS\10\INCLUDE\10.0.16299.0\UM\CONSOLEAPI.H
C:\PROGRAM FILES (X86)\WINDOWS KITS\10\INCLUDE\10.0.16299.0\UM\WINVER.H
C:\PROGRAM FILES (X86)\WINDOWS KITS\10\INCLUDE\10.0.16299.0\UM\VERRSRC.H
C:\PROGRAM FILES (X86)\WINDOWS KITS\10\INCLUDE\10.0.16299.0\UM\WINREG.H
C:\PROGRAM FILES (X86)\WINDOWS KITS\10\INCLUDE\10.0.16299.0\UM\REASON.H
C:\PROGRAM FILES (X86)\WINDOWS KITS\10\INCLUDE\10.0.16299.0\UM\WINNETWK.H
C:\PROGRAM FILES (X86)\WINDOWS KITS\10\INCLUDE\10.0.16299.0\SHARED\WNNC.H
C:\PROGRAM FILES (X86)\WINDOWS KITS\10\INCLUDE\10.0.16299.0\SHARED\CDERR.H
C:\PROGRAM FILES (X86)\WINDOWS KITS\10\INCLUDE\10.0.16299.0\UM\DDE.H
C:\PROGRAM FILES (X86)\WINDOWS KITS\10\INCLUDE\10.0.16299.0\UM\DDEML.H
C:\PROGRAM FILES (X86)\WINDOWS KITS\10\INCLUDE\10.0.16299.0\UM\DLGS.H
C:\PROGRAM FILES (X86)\WINDOWS KITS\10\INCLUDE\10.0.16299.0\UM\LZEXPAND.H
C:\PROGRAM FILES (X86)\WINDOWS KITS\10\INCLUDE\10.0.16299.0\UM\MMSYSTEM.H
C:\PROGRAM FILES (X86)\WINDOWS KITS\10\INCLUDE\10.0.16299.0\UM\MMSYSCOM.H
C:\PROGRAM FILES (X86)\WINDOWS KITS\10\INCLUDE\10.0.16299.0\UM\MCIAPI.H
C:\PROGRAM FILES (X86)\WINDOWS KITS\10\INCLUDE\10.0.16299.0\UM\MMISCAPI.H
C:\PROGRAM FILES (X86)\WINDOWS KITS\10\INCLUDE\10.0.16299.0\UM\MMISCAPI2.H
C:\PROGRAM FILES (X86)\WINDOWS KITS\10\INCLUDE\10.0.16299.0\UM\PLAYSOUNDAPI.H
C:\PROGRAM FILES (X86)\WINDOWS KITS\10\INCLUDE\10.0.16299.0\UM\MMEAPI.H
C:\PROGRAM FILES (X86)\WINDOWS KITS\10\INCLUDE\10.0.16299.0\UM\TIMEAPI.H
C:\PROGRAM FILES (X86)\WINDOWS KITS\10\INCLUDE\10.0.16299.0\UM\JOYSTICKAPI.H
C:\PROGRAM FILES (X86)\WINDOWS KITS\10\INCLUDE\10.0.16299.0\UM\NB30.H
C:\PROGRAM FILES (X86)\WINDOWS KITS\10\INCLUDE\10.0.16299.0\SHARED\RPC.H
C:\PROGRAM FILES (X86)\WINDOWS KITS\10\INCLUDE\10.0.16299.0\SHARED\RPCDCE.H
C:\PROGRAM FILES (X86)\WINDOWS KITS\10\INCLUDE\10.0.16299.0\SHARED\RPCDCEP.H
C:\PROGRAM FILES (X86)\WINDOWS KITS\10\INCLUDE\10.0.16299.0\UM\RPCNSI.H
C:\PROGRAM FILES (X86)\WINDOWS KITS\10\INCLUDE\10.0.16299.0\SHARED\RPCNTERR.H
C:\PROGRAM FILES (X86)\WINDOWS KITS\10\INCLUDE\10.0.16299.0\SHARED\RPCASYNC.H
C:\PROGRAM FILES (X86)\WINDOWS KITS\10\INCLUDE\10.0.16299.0\UM\SHELLAPI.H
C:\PROGRAM FILES (X86)\WINDOWS KITS\10\INCLUDE\10.0.16299.0\UM\WINPERF.H
C:\PROGRAM FILES (X86)\WINDOWS KITS\10\INCLUDE\10.0.16299.0\UM\WINSOCK.H
C:\PROGRAM FILES (X86)\WINDOWS KITS\10\INCLUDE\10.0.16299.0\UM\WINCRYPT.H
C:\PROGRAM FILES (X86)\WINDOWS KITS\10\INCLUDE\10.0.16299.0\SHARED\BCRYPT.H
C:\PROGRAM FILES (X86)\WINDOWS KITS\10\INCLUDE\10.0.16299.0\UM\NCRYPT.H
C:\PROGRAM FILES (X86)\WINDOWS KITS\10\INCLUDE\10.0.16299.0\UM\DPAPI.H
C:\PROGRAM FILES (X86)\WINDOWS KITS\10\INCLUDE\10.0.16299.0\UM\WINEFS.H
C:\PROGRAM FILES (X86)\WINDOWS KITS\10\INCLUDE\10.0.16299.0\UM\WINSCARD.H
C:\PROGRAM FILES (X86)\WINDOWS KITS\10\INCLUDE\10.0.16299.0\SHARED\WTYPES.H
C:\PROGRAM FILES (X86)\WINDOWS KITS\10\INCLUDE\10.0.16299.0\SHARED\RPCNDR.H
C:\PROGRAM FILES (X86)\WINDOWS KITS\10\INCLUDE\10.0.16299.0\UM\RPCNSIP.H
C:\PROGRAM FILES (X86)\WINDOWS KITS\10\INCLUDE\10.0.16299.0\SHARED\RPCSAL.H
C:\PROGRAM FILES (X86)\WINDOWS KITS\10\INCLUDE\10.0.16299.0\SHARED\WTYPESBASE.H
C:\PROGRAM FILES (X86)\WINDOWS KITS\10\INCLUDE\10.0.16299.0\UM\WINIOCTL.H
C:\PROGRAM FILES (X86)\WINDOWS KITS\10\INCLUDE\10.0.16299.0\SHARED\WINSMCRD.H
C:\PROGRAM FILES (X86)\WINDOWS KITS\10\INCLUDE\10.0.16299.0\UM\WINSPOOL.H
C:\PROGRAM FILES (X86)\WINDOWS KITS\10\INCLUDE\10.0.16299.0\UM\PRSHT.H
C:\PROGRAM FILES (X86)\WINDOWS KITS\10\INCLUDE\10.0.16299.0\UM\OLE2.H
C:\PROGRAM FILES (X86)\WINDOWS KITS\10\INCLUDE\10.0.16299.0\UM\OBJBASE.H
C:\PROGRAM FILES (X86)\WINDOWS KITS\10\INCLUDE\10.0.16299.0\UM\COMBASEAPI.H
C:\PROGRAM FILES (X86)\WINDOWS KITS\10\INCLUDE\10.0.16299.0\UM\UNKNWNBASE.H
C:\PROGRAM FILES (X86)\WINDOWS KITS\10\INCLUDE\10.0.16299.0\UM\OBJIDLBASE.H
C:\PROGRAM FILES (X86)\WINDOWS KITS\10\INCLUDE\10.0.16299.0\UM\CGUID.H
C:\PROGRAM FILES (X86)\WINDOWS KITS\10\INCLUDE\10.0.16299.0\UM\COML2API.H
C:\PROGRAM FILES (X86)\WINDOWS KITS\10\INCLUDE\10.0.16299.0\UM\OBJIDL.H
C:\PROGRAM FILES (X86)\WINDOWS KITS\10\INCLUDE\10.0.16299.0\UM\UNKNWN.H
C:\PROGRAM FILES (X86)\WINDOWS KITS\10\INCLUDE\10.0.16299.0\UM\PROPIDLBASE.H
C:\PROGRAM FILES (X86)\WINDOWS KITS\10\INCLUDE\10.0.16299.0\UM\OAIDL.H
C:\PROGRAM FILES (X86)\WINDOWS KITS\10\INCLUDE\10.0.16299.0\UM\URLMON.H
C:\PROGRAM FILES (X86)\WINDOWS KITS\10\INCLUDE\10.0.16299.0\UM\OLEIDL.H
C:\PROGRAM FILES (X86)\WINDOWS KITS\10\INCLUDE\10.0.16299.0\UM\SERVPROV.H
C:\PROGRAM FILES (X86)\WINDOWS KITS\10\INCLUDE\10.0.16299.0\UM\MSXML.H
C:\PROGRAM FILES (X86)\WINDOWS KITS\10\INCLUDE\10.0.16299.0\UM\PROPIDL.H
C:\PROGRAM FILES (X86)\WINDOWS KITS\10\INCLUDE\10.0.16299.0\UM\OLEAUTO.H
C:\PROGRAM FILES (X86)\WINDOWS KITS\10\INCLUDE\10.0.16299.0\UM\COMMDLG.H
C:\PROGRAM FILES (X86)\WINDOWS KITS\10\INCLUDE\10.0.16299.0\SHARED\STRALIGN.H
C:\PROGRAM FILES (X86)\WINDOWS KITS\10\INCLUDE\10.0.16299.0\UM\WINSVC.H
C:\PROGRAM FILES (X86)\WINDOWS KITS\10\INCLUDE\10.0.16299.0\UM\MCX.H
C:\PROGRAM FILES (X86)\WINDOWS KITS\10\INCLUDE\10.0.16299.0\UM\IMM.H
C:\PROGRAM FILES (X86)\WINDOWS KITS\10\INCLUDE\10.0.16299.0\UM\IME_CMODES.H
C:\PROGRAM FILES (X86)\WINDOWS KITS\10\INCLUDE\10.0.16299.0\SHARED\WS2DEF.H
C:\PROGRAM FILES (X86)\WINDOWS KITS\10\INCLUDE\10.0.16299.0\SHARED\INADDR.H
C:\PROGRAM FILES (X86)\WINDOWS KITS\10\INCLUDE\10.0.16299.0\SHARED\QOS.H
C:\PROGRAM FILES (X86)\WINDOWS KITS\10\INCLUDE\10.0.16299.0\UM\WS2TCPIP.H
C:\PROGRAM FILES (X86)\WINDOWS KITS\10\INCLUDE\10.0.16299.0\SHARED\WS2IPDEF.H
C:\PROGRAM FILES (X86)\WINDOWS KITS\10\INCLUDE\10.0.16299.0\SHARED\IN6ADDR.H
D:\PROFILES\RGOUDARD\PROGRAMMES\VISUAL STUDIO\VC\TOOLS\MSVC\14.12.25827\INCLUDE\STRING
D:\PROFILES\RGOUDARD\PROGRAMMES\VISUAL STUDIO\VC\TOOLS\MSVC\14.12.25827\INCLUDE\XSTRING_INSERT.H
D:\PROFILES\RGOUDARD\PROGRAMMES\VISUAL STUDIO\VC\TOOLS\MSVC\14.12.25827\INCLUDE\THREAD
D:\PROFILES\RGOUDARD\PROGRAMMES\VISUAL STUDIO\VC\TOOLS\MSVC\14.12.25827\INCLUDE\FUNCTIONAL
D:\PROFILES\RGOUDARD\PROGRAMMES\VISUAL STUDIO\VC\TOOLS\MSVC\14.12.25827\INCLUDE\TUPLE
D:\PROFILES\RGOUDARD\PROGRAMMES\VISUAL STUDIO\VC\TOOLS\MSVC\14.12.25827\INCLUDE\XFUNCTIONAL
D:\PROFILES\RGOUDARD\PROGRAMMES\VISUAL STUDIO\VC\TOOLS\MSVC\14.12.25827\INCLUDE\CHRONO
D:\PROFILES\RGOUDARD\PROGRAMMES\VISUAL STUDIO\VC\TOOLS\MSVC\14.12.25827\INCLUDE\RATIO
C:\PROGRAM FILES (X86)\WINDOWS KITS\10\INCLUDE\10.0.16299.0\UCRT\TIME.H
D:\PROFILES\RGOUDARD\PROGRAMMES\VISUAL STUDIO\VC\TOOLS\MSVC\14.12.25827\INCLUDE\THR\XTIMEC.H
D:\PROFILES\RGOUDARD\PROGRAMMES\VISUAL STUDIO\VC\TOOLS\MSVC\14.12.25827\INCLUDE\THR\XTHRCOMMON.H
D:\PROFILES\RGOUDARD\PROGRAMMES\VISUAL STUDIO\VC\TOOLS\MSVC\14.12.25827\INCLUDE\MEMORY
D:\PROFILES\RGOUDARD\PROGRAMMES\VISUAL STUDIO\VC\TOOLS\MSVC\14.12.25827\INCLUDE\XMEMORY
D:\PROFILES\RGOUDARD\PROGRAMMES\VISUAL STUDIO\VC\TOOLS\MSVC\14.12.25827\INCLUDE\THR\XTHREAD
D:\PROFILES\RGOUDARD\PROGRAMMES\VISUAL STUDIO\VC\TOOLS\MSVC\14.12.25827\INCLUDE\THR\XTIME
D:\PROFILES\RGOUDARD\PROGRAMMES\VISUAL STUDIO\VC\TOOLS\MSVC\14.12.25827\INCLUDE\THR\XTHREADS.H
D:\PROFILES\RGOUDARD\PROGRAMMES\VISUAL STUDIO\VC\TOOLS\MSVC\14.12.25827\INCLUDE\VECTOR
D:\PROFILES\RGOUDARD\PROGRAMMES\VISUAL STUDIO\VC\TOOLS\MSVC\14.12.25827\INCLUDE\FSTREAM
D:\PROFILES\RGOUDARD\PROGRAMMES\VISUAL STUDIO\VC\TOOLS\MSVC\14.12.25827\INCLUDE\CTIME
