^D:\PROFILES\RGOUDARD\DESKTOP\ECOLE\CPUSPLUS2\PROJETCPPSERVER\SERVERTEST\STDAFX.CPP
D:\PROFILES\RGOUDARD\DESKTOP\ECOLE\CPUSPLUS2\PROJETCPPSERVER\SERVERTEST\X64\DEBUG\SERVERCPP.PCH
D:\PROFILES\RGOUDARD\DESKTOP\ECOLE\CPUSPLUS2\PROJETCPPSERVER\SERVERTEST\X64\DEBUG\VC141.PDB
D:\PROFILES\RGOUDARD\DESKTOP\ECOLE\CPUSPLUS2\PROJETCPPSERVER\SERVERTEST\X64\DEBUG\VC141.IDB
D:\PROFILES\RGOUDARD\DESKTOP\ECOLE\CPUSPLUS2\PROJETCPPSERVER\SERVERTEST\X64\DEBUG\STDAFX.OBJ
^D:\PROFILES\RGOUDARD\DESKTOP\ECOLE\CPUSPLUS2\PROJETCPPSERVER\SERVERTEST\SERVERCPP.CPP
D:\PROFILES\RGOUDARD\DESKTOP\ECOLE\CPUSPLUS2\PROJETCPPSERVER\SERVERTEST\X64\DEBUG\VC141.PDB
D:\PROFILES\RGOUDARD\DESKTOP\ECOLE\CPUSPLUS2\PROJETCPPSERVER\SERVERTEST\X64\DEBUG\VC141.IDB
D:\PROFILES\RGOUDARD\DESKTOP\ECOLE\CPUSPLUS2\PROJETCPPSERVER\SERVERTEST\X64\DEBUG\SERVERCPP.OBJ
