^D:\PROFILES\RGOUDARD\DESKTOP\ECOLE\CPUSPLUS2\PROJETCPPSERVER\SERVERTEST\X64\DEBUG\SERVERCPP.OBJ|D:\PROFILES\RGOUDARD\DESKTOP\ECOLE\CPUSPLUS2\PROJETCPPSERVER\SERVERTEST\X64\DEBUG\STDAFX.OBJ
D:\PROFILES\RGOUDARD\DESKTOP\ECOLE\CPUSPLUS2\PROJETCPPSERVER\X64\DEBUG\SERVERCPP.EXE
D:\PROFILES\RGOUDARD\DESKTOP\ECOLE\CPUSPLUS2\PROJETCPPSERVER\X64\DEBUG\SERVERCPP.ILK
D:\PROFILES\RGOUDARD\DESKTOP\ECOLE\CPUSPLUS2\PROJETCPPSERVER\X64\DEBUG\SERVERCPP.PDB
