^C:\USERS\VBONASSI\DESKTOP\ESGI\C++\SERVERTEST\SERVERTEST\DEBUG\SERVERTEST.OBJ|C:\USERS\VBONASSI\DESKTOP\ESGI\C++\SERVERTEST\SERVERTEST\DEBUG\STDAFX.OBJ
/OUT:"C:\USERS\VBONASSI\DESKTOP\ESGI\C++\SERVERTEST\DEBUG\SERVERTEST.EXE" /INCREMENTAL /NOLOGO KERNEL32.LIB USER32.LIB GDI32.LIB WINSPOOL.LIB COMDLG32.LIB ADVAPI32.LIB SHELL32.LIB OLE32.LIB OLEAUT32.LIB UUID.LIB ODBC32.LIB ODBCCP32.LIB /MANIFEST /MANIFESTUAC:"level='asInvoker' uiAccess='false'" /manifest:embed /DEBUG /PDB:"C:\USERS\VBONASSI\DESKTOP\ESGI\C++\SERVERTEST\DEBUG\SERVERTEST.PDB" /SUBSYSTEM:CONSOLE /TLBID:1 /DYNAMICBASE /NXCOMPAT /IMPLIB:"C:\USERS\VBONASSI\DESKTOP\ESGI\C++\SERVERTEST\DEBUG\SERVERTEST.LIB" /MACHINE:X86 DEBUG\SERVERTEST.OBJDEBUG\STDAFX.OBJ
^C:\USERS\VBONASSI\DESKTOP\ESGI\C++\SERVERPROJ\SERVERTEST\DEBUG\SERVERTEST.OBJ|C:\USERS\VBONASSI\DESKTOP\ESGI\C++\SERVERPROJ\SERVERTEST\DEBUG\STDAFX.OBJ
/OUT:"C:\USERS\VBONASSI\DESKTOP\ESGI\C++\SERVERPROJ\DEBUG\SERVERTEST.EXE" /INCREMENTAL /NOLOGO KERNEL32.LIB USER32.LIB GDI32.LIB WINSPOOL.LIB COMDLG32.LIB ADVAPI32.LIB SHELL32.LIB OLE32.LIB OLEAUT32.LIB UUID.LIB ODBC32.LIB ODBCCP32.LIB /MANIFEST /MANIFESTUAC:"level='asInvoker' uiAccess='false'" /manifest:embed /DEBUG /PDB:"C:\USERS\VBONASSI\DESKTOP\ESGI\C++\SERVERPROJ\DEBUG\SERVERTEST.PDB" /SUBSYSTEM:CONSOLE /TLBID:1 /DYNAMICBASE /NXCOMPAT /IMPLIB:"C:\USERS\VBONASSI\DESKTOP\ESGI\C++\SERVERPROJ\DEBUG\SERVERTEST.LIB" /MACHINE:X86 DEBUG\SERVERTEST.OBJDEBUG\STDAFX.OBJ
