^C:\USERS\NOIRE\TRAVAIL\ECOLE-ESGI\C++_METAPROGRAMATION\PROJET_CHAT_SERVER\PROJETCPPSERVER\SERVERTEST\STDAFX.CPP
C:\USERS\NOIRE\TRAVAIL\ECOLE-ESGI\C++_METAPROGRAMATION\PROJET_CHAT_SERVER\PROJETCPPSERVER\SERVERTEST\X64\RELEASE\SERVERCPP.PCH
C:\USERS\NOIRE\TRAVAIL\ECOLE-ESGI\C++_METAPROGRAMATION\PROJET_CHAT_SERVER\PROJETCPPSERVER\SERVERTEST\X64\RELEASE\VC141.PDB
C:\USERS\NOIRE\TRAVAIL\ECOLE-ESGI\C++_METAPROGRAMATION\PROJET_CHAT_SERVER\PROJETCPPSERVER\SERVERTEST\X64\RELEASE\STDAFX.OBJ
^C:\USERS\NOIRE\TRAVAIL\ECOLE-ESGI\C++_METAPROGRAMATION\PROJET_CHAT_SERVER\PROJETCPPSERVER\SERVERTEST\SERVERCPP.CPP
C:\USERS\NOIRE\TRAVAIL\ECOLE-ESGI\C++_METAPROGRAMATION\PROJET_CHAT_SERVER\PROJETCPPSERVER\SERVERTEST\X64\RELEASE\VC141.PDB
C:\USERS\NOIRE\TRAVAIL\ECOLE-ESGI\C++_METAPROGRAMATION\PROJET_CHAT_SERVER\PROJETCPPSERVER\SERVERTEST\X64\RELEASE\SERVERCPP.OBJ
