^C:\USERS\VBONASSI\DESKTOP\ESGI\C++\SERVLAB\PROJETCPPSERVER\SERVERTEST\X64\RELEASE\SERVERCPP.OBJ|C:\USERS\VBONASSI\DESKTOP\ESGI\C++\SERVLAB\PROJETCPPSERVER\SERVERTEST\X64\RELEASE\STDAFX.OBJ
/OUT:"C:\USERS\VBONASSI\DESKTOP\ESGI\C++\SERVLAB\PROJETCPPSERVER\X64\RELEASE\SERVERCPP.EXE" /INCREMENTAL:NO /NOLOGO KERNEL32.LIB USER32.LIB GDI32.LIB WINSPOOL.LIB COMDLG32.LIB ADVAPI32.LIB SHELL32.LIB OLE32.LIB OLEAUT32.LIB UUID.LIB ODBC32.LIB ODBCCP32.LIB /MANIFEST /MANIFESTUAC:"level='asInvoker' uiAccess='false'" /manifest:embed /DEBUG /PDB:"C:\USERS\VBONASSI\DESKTOP\ESGI\C++\SERVLAB\PROJETCPPSERVER\X64\RELEASE\SERVERCPP.PDB" /SUBSYSTEM:CONSOLE /OPT:REF /OPT:ICF /LTCG:incremental /TLBID:1 /DYNAMICBASE /NXCOMPAT /IMPLIB:"C:\USERS\VBONASSI\DESKTOP\ESGI\C++\SERVLAB\PROJETCPPSERVER\X64\RELEASE\SERVERCPP.LIB" /MACHINE:X64 X64\RELEASE\SERVERCPP.OBJX64\RELEASE\STDAFX.OBJ
^C:\USERS\NOIRE\TRAVAIL\ECOLE-ESGI\C++_METAPROGRAMATION\PROJET_CHAT_SERVER\PROJETCPPSERVER\SERVERTEST\X64\RELEASE\SERVERCPP.OBJ|C:\USERS\NOIRE\TRAVAIL\ECOLE-ESGI\C++_METAPROGRAMATION\PROJET_CHAT_SERVER\PROJETCPPSERVER\SERVERTEST\X64\RELEASE\STDAFX.OBJ
/OUT:"C:\USERS\NOIRE\TRAVAIL\ECOLE-ESGI\C++_METAPROGRAMATION\PROJET_CHAT_SERVER\PROJETCPPSERVER\X64\RELEASE\SERVERCPP.EXE" /INCREMENTAL:NO /NOLOGO KERNEL32.LIB USER32.LIB GDI32.LIB WINSPOOL.LIB COMDLG32.LIB ADVAPI32.LIB SHELL32.LIB OLE32.LIB OLEAUT32.LIB UUID.LIB ODBC32.LIB ODBCCP32.LIB /MANIFEST /MANIFESTUAC:"level='asInvoker' uiAccess='false'" /manifest:embed /DEBUG /PDB:"C:\USERS\NOIRE\TRAVAIL\ECOLE-ESGI\C++_METAPROGRAMATION\PROJET_CHAT_SERVER\PROJETCPPSERVER\X64\RELEASE\SERVERCPP.PDB" /SUBSYSTEM:CONSOLE /OPT:REF /OPT:ICF /LTCG:incremental /TLBID:1 /DYNAMICBASE /NXCOMPAT /IMPLIB:"C:\USERS\NOIRE\TRAVAIL\ECOLE-ESGI\C++_METAPROGRAMATION\PROJET_CHAT_SERVER\PROJETCPPSERVER\X64\RELEASE\SERVERCPP.LIB" /MACHINE:X64 X64\RELEASE\SERVERCPP.OBJX64\RELEASE\STDAFX.OBJ
