^C:\USERS\VBONASSI\DESKTOP\ESGI\C++\SERVERPROJ\SERVERTEST\RELEASE\SERVERCPP.OBJ|C:\USERS\VBONASSI\DESKTOP\ESGI\C++\SERVERPROJ\SERVERTEST\RELEASE\STDAFX.OBJ
C:\USERS\VBONASSI\DESKTOP\ESGI\C++\SERVERPROJ\RELEASE\SERVERCPP.EXE
C:\USERS\VBONASSI\DESKTOP\ESGI\C++\SERVERPROJ\RELEASE\SERVERCPP.IPDB
C:\USERS\VBONASSI\DESKTOP\ESGI\C++\SERVERPROJ\RELEASE\SERVERCPP.IOBJ
C:\USERS\VBONASSI\DESKTOP\ESGI\C++\SERVERPROJ\RELEASE\SERVERCPP.PDB
