﻿  serverCPP.cpp
serverCPP.cpp(39): warning C4091: '' : ignoré à gauche de 'std::basic_string<char,std::char_traits<char>,std::allocator<char>>' quand aucune variable n'est déclarée
serverCPP.cpp(84): warning C4267: 'initialisation' : conversion de 'size_t' en 'int', perte possible de données
serverCPP.cpp(88): warning C4267: 'initialisation' : conversion de 'size_t' en 'int', perte possible de données
serverCPP.cpp(96): warning C4267: 'argument' : conversion de 'size_t' en 'int', perte possible de données
serverCPP.cpp(101): warning C4267: 'argument' : conversion de 'size_t' en 'int', perte possible de données
serverCPP.cpp(124): warning C4267: 'argument' : conversion de 'size_t' en 'int', perte possible de données
serverCPP.cpp(234): warning C4267: 'argument' : conversion de 'size_t' en 'int', perte possible de données
serverCPP.cpp(242): warning C4267: 'argument' : conversion de 'size_t' en 'int', perte possible de données
  Génération de code en cours
  2 of 289 functions ( 0.7%) were compiled, the rest were copied from previous compilation.
    0 functions were new in current compilation
    0 functions had inline decision re-evaluated but remain unchanged
  Fin de la génération du code
  servertest.vcxproj -> C:\Users\noire\Travail\Ecole-ESGI\C++_metaprogramation\Projet_chat_server\ProjetCPPServer\x64\Release\serverCPP.exe
